<?xml version="1.0" encoding="UTF-8"?>
<robot generator="Robot 7.3.1 (Python 3.13.4 on win32)" generated="2025-06-26T14:20:39.079891" rpa="false" schemaversion="5">
<suite id="s1" name="GrokTest" source="C:\Users\Lenovo\IdeaProjects\GrokAPI\src\test\resources\TestCases\GrokTest.robot">
<test id="s1-t1" name="Post Request Test" line="14">
<kw name="Create Session" owner="RequestsLibrary">
<msg time="2025-06-26T14:20:39.403479" level="INFO">Creating Session using : alias=myapi, url=https://reqres.in/api, headers={},                     cookies={}, auth=None, timeout=None, proxies=None, verify=False,                     debug=0 </msg>
<arg>myapi</arg>
<arg>${BASE_URL}</arg>
<doc>Create Session: create a HTTP session to a server</doc>
<status status="PASS" start="2025-06-26T14:20:39.403212" elapsed="0.001746"/>
</kw>
<kw name="Post Request" owner="RequestsLibrary">
<msg time="2025-06-26T14:20:39.405237" level="WARN">Keyword 'RequestsLibrary.Post Request' is deprecated. Please use `POST On Session` instead.</msg>
<msg time="2025-06-26T14:20:39.944865" level="INFO">POST Request : url=https://reqres.in/api/users 
 path_url=/api/users 
 headers={'User-Agent': 'python-requests/2.32.4', 'Accept-Encoding': 'gzip, deflate', 'Accept': '*/*', 'Connection': 'keep-alive', 'Content-Length': '47', 'Content-Type': 'application/json'} 
 body=b'"{\\"name\\": \\"morpheus\\", \\"job\\": \\"leader\\"}"' 
 </msg>
<msg time="2025-06-26T14:20:39.945192" level="INFO">POST Response : url=https://reqres.in/api/users 
 status=400, reason=Bad Request 
 headers={'Date': 'Thu, 26 Jun 2025 08:50:39 GMT', 'Content-Type': 'text/html; charset=utf-8', 'Transfer-Encoding': 'chunked', 'Connection': 'keep-alive', 'CF-RAY': '955b754fc8cd5a0b-DEL', 'Report-To': '{"group":"heroku-nel","max_age":3600,"endpoints":[{"url":"https://nel.heroku.com/reports?ts=1750927838&amp;sid=c4c9725f-1ab0-44d8-820f-430df2718e11&amp;s=u5AKDzGBgMT47BaFXTg%2BKUFlXIs0c77cLOOs18%2FqSLE%3D"}]}', 'Reporting-Endpoints': 'heroku-nel=https://nel.heroku.com/reports?ts=1750927838&amp;sid=c4c9725f-1ab0-44d8-820f-430df2718e11&amp;s=u5AKDzGBgMT47BaFXTg%2BKUFlXIs0c77cLOOs18%2FqSLE%3D', 'Nel': '{"report_to":"heroku-nel","max_age":3600,"success_fraction":0.005,"failure_fraction":0.05,"response_headers":["Via"]}', 'X-Powered-By': 'Express', 'Content-Security-Policy': "default-src 'none'", 'X-Content-Type-Options': 'nosniff', 'Via': '1.1 vegur', 'cf-cache-status': 'DYNAMIC', 'Server': 'cloudflare', 'server-timing': 'cfL4;desc="?proto=TCP&amp;rtt=52474&amp;min_rtt=51899&amp;rtt_var=20613&amp;sent=5&amp;recv=7&amp;lost=0&amp;retrans=0&amp;sent_bytes=2834&amp;recv_bytes=890&amp;delivery_rate=51678&amp;cwnd=233&amp;unsent_bytes=0&amp;cid=6d398f0b99b268f8&amp;ts=412&amp;x=0"'} 
 body=&lt;!DOCTYPE html&gt;
&lt;html lang="en"&gt;
&lt;head&gt;
&lt;meta charset="utf-8"&gt;
&lt;title&gt;Error&lt;/title&gt;
&lt;/head&gt;
&lt;body&gt;
&lt;pre&gt;Bad Request&lt;/pre&gt;
&lt;/body&gt;
&lt;/html&gt;
 
 </msg>
<msg time="2025-06-26T14:20:39.945394" level="INFO">C:\Users\Lenovo\AppData\Local\Programs\Python\Python313\Lib\site-packages\urllib3\connectionpool.py:1097: InsecureRequestWarning: Unverified HTTPS request is being made to host 'reqres.in'. Adding certificate verification is strongly advised. See: https://urllib3.readthedocs.io/en/latest/advanced-usage.html#tls-warnings
  warnings.warn(</msg>
<msg time="2025-06-26T14:20:39.945656" level="INFO">${response} = &lt;Response [400]&gt;</msg>
<var>${response}</var>
<arg>myapi</arg>
<arg>/users</arg>
<arg>json=${POST_PAYLOAD}</arg>
<doc>*DEPRECATED* Please use `POST On Session` instead.</doc>
<status status="PASS" start="2025-06-26T14:20:39.405142" elapsed="0.540619"/>
</kw>
<kw name="Should Be Equal As Numbers" owner="BuiltIn">
<msg time="2025-06-26T14:20:39.946806" level="INFO">Argument types are:
&lt;class 'int'&gt;
&lt;class 'str'&gt;</msg>
<msg time="2025-06-26T14:20:39.947048" level="FAIL">400.0 != 201.0</msg>
<arg>${response.status_code}</arg>
<arg>201</arg>
<doc>Fails if objects are unequal after converting them to real numbers.</doc>
<status status="FAIL" start="2025-06-26T14:20:39.946059" elapsed="0.001216">400.0 != 201.0</status>
</kw>
<kw name="Log" owner="BuiltIn">
<arg>Response: ${response.text}</arg>
<doc>Logs the given message with the given level.</doc>
<status status="NOT RUN" start="2025-06-26T14:20:39.947493" elapsed="0.000111"/>
</kw>
<kw name="Convert To Json">
<var>${response_json}</var>
<arg>${response.text}</arg>
<status status="NOT RUN" start="2025-06-26T14:20:39.947920" elapsed="0.000115"/>
</kw>
<kw name="Should Contain" owner="BuiltIn">
<arg>${response_json[name]}</arg>
<arg>morpheus</arg>
<doc>Fails if ``container`` does not contain ``item`` one or more times.</doc>
<status status="NOT RUN" start="2025-06-26T14:20:39.948173" elapsed="0.000095"/>
</kw>
<kw name="Should Contain" owner="BuiltIn">
<arg>${response_json[job]}</arg>
<arg>leader</arg>
<doc>Fails if ``container`` does not contain ``item`` one or more times.</doc>
<status status="NOT RUN" start="2025-06-26T14:20:39.948382" elapsed="0.000100"/>
</kw>
<doc>Test POST request to create a new user.</doc>
<tag>POST, API</tag>
<status status="FAIL" start="2025-06-26T14:20:39.402355" elapsed="0.546322">400.0 != 201.0</status>
</test>
<test id="s1-t2" name="Put Request Test" line="26">
<kw name="Create Session" owner="RequestsLibrary">
<msg time="2025-06-26T14:20:39.949502" level="INFO">Creating Session using : alias=myapi, url=https://reqres.in/api, headers={},                     cookies={}, auth=None, timeout=None, proxies=None, verify=False,                     debug=0 </msg>
<arg>myapi</arg>
<arg>${BASE_URL}</arg>
<doc>Create Session: create a HTTP session to a server</doc>
<status status="PASS" start="2025-06-26T14:20:39.949322" elapsed="0.000365"/>
</kw>
<kw name="Put Request" owner="RequestsLibrary">
<msg time="2025-06-26T14:20:39.949928" level="WARN">Keyword 'RequestsLibrary.Put Request' is deprecated. Please use `PUT On Session` instead.</msg>
<msg time="2025-06-26T14:20:40.263574" level="INFO">PUT Request : url=https://reqres.in/api/users/2 
 path_url=/api/users/2 
 headers={'User-Agent': 'python-requests/2.32.4', 'Accept-Encoding': 'gzip, deflate', 'Accept': '*/*', 'Connection': 'keep-alive', 'Content-Length': '54', 'Content-Type': 'application/json'} 
 body=b'"{\\"name\\": \\"morpheus\\", \\"job\\": \\"zion resident\\"}"' 
 </msg>
<msg time="2025-06-26T14:20:40.263736" level="INFO">PUT Response : url=https://reqres.in/api/users/2 
 status=400, reason=Bad Request 
 headers={'Date': 'Thu, 26 Jun 2025 08:50:39 GMT', 'Content-Type': 'text/html; charset=utf-8', 'Transfer-Encoding': 'chunked', 'Connection': 'keep-alive', 'CF-RAY': '955b75526bd3ff69-BOM', 'Report-To': '{"group":"heroku-nel","max_age":3600,"endpoints":[{"url":"https://nel.heroku.com/reports?ts=1750927839&amp;sid=c4c9725f-1ab0-44d8-820f-430df2718e11&amp;s=hdonJDnuw2Ax8cuSh6wqWWc%2BqCwIRAKqO19XiTfcXBE%3D"}]}', 'Reporting-Endpoints': 'heroku-nel=https://nel.heroku.com/reports?ts=1750927839&amp;sid=c4c9725f-1ab0-44d8-820f-430df2718e11&amp;s=hdonJDnuw2Ax8cuSh6wqWWc%2BqCwIRAKqO19XiTfcXBE%3D', 'Nel': '{"report_to":"heroku-nel","max_age":3600,"success_fraction":0.005,"failure_fraction":0.05,"response_headers":["Via"]}', 'X-Powered-By': 'Express', 'Content-Security-Policy': "default-src 'none'", 'X-Content-Type-Options': 'nosniff', 'Via': '1.1 vegur', 'CF-Cache-Status': 'DYNAMIC', 'Vary': 'Accept-Encoding', 'Server': 'cloudflare', 'server-timing': 'cfL4;desc="?proto=TCP&amp;rtt=17677&amp;min_rtt=7334&amp;rtt_var=9647&amp;sent=4&amp;recv=7&amp;lost=0&amp;retrans=0&amp;sent_bytes=2832&amp;recv_bytes=898&amp;delivery_rate=398145&amp;cwnd=251&amp;unsent_bytes=0&amp;cid=04515bed178a9c59&amp;ts=276&amp;x=0"'} 
 body=&lt;!DOCTYPE html&gt;
&lt;html lang="en"&gt;
&lt;head&gt;
&lt;meta charset="utf-8"&gt;
&lt;title&gt;Error&lt;/title&gt;
&lt;/head&gt;
&lt;body&gt;
&lt;pre&gt;Bad Request&lt;/pre&gt;
&lt;/body&gt;
&lt;/html&gt;
 
 </msg>
<msg time="2025-06-26T14:20:40.263833" level="INFO">C:\Users\Lenovo\AppData\Local\Programs\Python\Python313\Lib\site-packages\urllib3\connectionpool.py:1097: InsecureRequestWarning: Unverified HTTPS request is being made to host 'reqres.in'. Adding certificate verification is strongly advised. See: https://urllib3.readthedocs.io/en/latest/advanced-usage.html#tls-warnings
  warnings.warn(</msg>
<msg time="2025-06-26T14:20:40.264017" level="INFO">${response} = &lt;Response [400]&gt;</msg>
<var>${response}</var>
<arg>myapi</arg>
<arg>/users/2</arg>
<arg>json=${PUT_PAYLOAD}</arg>
<doc>*DEPRECATED* Please use `PUT On Session` instead.</doc>
<status status="PASS" start="2025-06-26T14:20:39.949833" elapsed="0.314231"/>
</kw>
<kw name="Should Be Equal As Numbers" owner="BuiltIn">
<msg time="2025-06-26T14:20:40.264619" level="INFO">Argument types are:
&lt;class 'int'&gt;
&lt;class 'str'&gt;</msg>
<msg time="2025-06-26T14:20:40.264731" level="FAIL">400.0 != 200.0</msg>
<arg>${response.status_code}</arg>
<arg>200</arg>
<doc>Fails if objects are unequal after converting them to real numbers.</doc>
<status status="FAIL" start="2025-06-26T14:20:40.264208" elapsed="0.000617">400.0 != 200.0</status>
</kw>
<kw name="Log" owner="BuiltIn">
<arg>Response: ${response.text}</arg>
<doc>Logs the given message with the given level.</doc>
<status status="NOT RUN" start="2025-06-26T14:20:40.264938" elapsed="0.000055"/>
</kw>
<kw name="Convert To Json">
<var>${response_json}</var>
<arg>${response.text}</arg>
<status status="NOT RUN" start="2025-06-26T14:20:40.265143" elapsed="0.000055"/>
</kw>
<kw name="Should Contain" owner="BuiltIn">
<arg>${response_json[name]}</arg>
<arg>morpheus</arg>
<doc>Fails if ``container`` does not contain ``item`` one or more times.</doc>
<status status="NOT RUN" start="2025-06-26T14:20:40.265276" elapsed="0.000043"/>
</kw>
<kw name="Should Contain" owner="BuiltIn">
<arg>${response_json[job]}</arg>
<arg>zion resident</arg>
<doc>Fails if ``container`` does not contain ``item`` one or more times.</doc>
<status status="NOT RUN" start="2025-06-26T14:20:40.265387" elapsed="0.000053"/>
</kw>
<doc>Test PUT request to update a user's information.</doc>
<tag>PUT, API</tag>
<status status="FAIL" start="2025-06-26T14:20:39.948966" elapsed="0.316598">400.0 != 200.0</status>
</test>
<test id="s1-t3" name="Get Request Test" line="38">
<kw name="Create Session" owner="RequestsLibrary">
<msg time="2025-06-26T14:20:40.266317" level="INFO">Creating Session using : alias=myapi, url=https://reqres.in/api, headers={},                     cookies={}, auth=None, timeout=None, proxies=None, verify=False,                     debug=0 </msg>
<arg>myapi</arg>
<arg>${BASE_URL}</arg>
<doc>Create Session: create a HTTP session to a server</doc>
<status status="PASS" start="2025-06-26T14:20:40.266169" elapsed="0.000281"/>
</kw>
<kw name="Get Request" owner="RequestsLibrary">
<msg time="2025-06-26T14:20:40.266616" level="WARN">Keyword 'RequestsLibrary.Get Request' is deprecated. Please use `GET On Session` instead.</msg>
<msg time="2025-06-26T14:20:40.331462" level="INFO">GET Request : url=https://reqres.in/api/users?page=2 
 path_url=/api/users?page=2 
 headers={'User-Agent': 'python-requests/2.32.4', 'Accept-Encoding': 'gzip, deflate', 'Accept': '*/*', 'Connection': 'keep-alive'} 
 body=None 
 </msg>
<msg time="2025-06-26T14:20:40.331755" level="INFO">GET Response : url=https://reqres.in/api/users?page=2 
 status=200, reason=OK 
 headers={'Date': 'Thu, 26 Jun 2025 08:50:39 GMT', 'Content-Type': 'application/json; charset=utf-8', 'Transfer-Encoding': 'chunked', 'Connection': 'keep-alive', 'Content-Encoding': 'gzip', 'Report-To': '{"group":"heroku-nel","max_age":3600,"endpoints":[{"url":"https://nel.heroku.com/reports?ts=1750924696&amp;sid=c4c9725f-1ab0-44d8-820f-430df2718e11&amp;s=GvRfdxB7knPPm8CciqpSKQx2Gk0lSiF06i7m2ZnlYps%3D"}]}', 'Reporting-Endpoints': 'heroku-nel=https://nel.heroku.com/reports?ts=1750924696&amp;sid=c4c9725f-1ab0-44d8-820f-430df2718e11&amp;s=GvRfdxB7knPPm8CciqpSKQx2Gk0lSiF06i7m2ZnlYps%3D', 'Nel': '{"report_to":"heroku-nel","max_age":3600,"success_fraction":0.005,"failure_fraction":0.05,"response_headers":["Via"]}', 'X-Powered-By': 'Express', 'Access-Control-Allow-Origin': '*', 'Ratelimit-Policy': '100;w=60', 'Ratelimit-Limit': '100', 'Ratelimit-Remaining': '98', 'Ratelimit-Reset': '60', 'Etag': 'W/"440-ZjsmMKR8P3usr2uJZbOCGCxC3Uw"', 'Via': '1.1 vegur', 'Cache-Control': 'max-age=14400', 'CF-Cache-Status': 'HIT', 'Age': '3143', 'Vary': 'Accept-Encoding', 'Server': 'cloudflare', 'CF-RAY': '955b75545d4a578d-BOM', 'server-timing': 'cfL4;desc="?proto=TCP&amp;rtt=9247&amp;min_rtt=6844&amp;rtt_var=4283&amp;sent=4&amp;recv=6&amp;lost=0&amp;retrans=0&amp;sent_bytes=2833&amp;recv_bytes=775&amp;delivery_rate=426651&amp;cwnd=243&amp;unsent_bytes=0&amp;cid=44dd6a9d356279ec&amp;ts=32&amp;x=0"'} 
 body={"page":2,"per_page":6,"total":12,"total_pages":2,"data":[{"id":7,"email":"michael.lawson@reqres.in","first_name":"Michael","last_name":"Lawson","avatar":"https://reqres.in/img/faces/7-image.jpg"},{"id":8,"email":"lindsay.ferguson@reqres.in","first_name":"Lindsay","last_name":"Ferguson","avatar":"https://reqres.in/img/faces/8-image.jpg"},{"id":9,"email":"tobias.funke@reqres.in","first_name":"Tobias","last_name":"Funke","avatar":"https://reqres.in/img/faces/9-image.jpg"},{"id":10,"email":"byron.fields@reqres.in","first_name":"Byron","last_name":"Fields","avatar":"https://reqres.in/img/faces/10-image.jpg"},{"id":11,"email":"george.edwards@reqres.in","first_name":"George","last_name":"Edwards","avatar":"https://reqres.in/img/faces/11-image.jpg"},{"id":12,"email":"rachel.howell@reqres.in","first_name":"Rachel","last_name":"Howell","avatar":"https://reqres.in/img/faces/12-image.jpg"}],"support":{"url":"https://contentcaddy.io?utm_source=reqres&amp;utm_medium=json&amp;utm_campaign=referral","text":"Tired of writing endless social media content? Let Content Caddy generate it for you."}} 
 </msg>
<msg time="2025-06-26T14:20:40.331949" level="INFO">C:\Users\Lenovo\AppData\Local\Programs\Python\Python313\Lib\site-packages\urllib3\connectionpool.py:1097: InsecureRequestWarning: Unverified HTTPS request is being made to host 'reqres.in'. Adding certificate verification is strongly advised. See: https://urllib3.readthedocs.io/en/latest/advanced-usage.html#tls-warnings
  warnings.warn(</msg>
<msg time="2025-06-26T14:20:40.332418" level="INFO">${response} = &lt;Response [200]&gt;</msg>
<var>${response}</var>
<arg>myapi</arg>
<arg>/users?page=${GET_PAGE}</arg>
<doc>*DEPRECATED* Please use `GET On Session` instead.</doc>
<status status="PASS" start="2025-06-26T14:20:40.266546" elapsed="0.066023"/>
</kw>
<kw name="Should Be Equal As Numbers" owner="BuiltIn">
<msg time="2025-06-26T14:20:40.333481" level="INFO">Argument types are:
&lt;class 'int'&gt;
&lt;class 'str'&gt;</msg>
<arg>${response.status_code}</arg>
<arg>200</arg>
<doc>Fails if objects are unequal after converting them to real numbers.</doc>
<status status="PASS" start="2025-06-26T14:20:40.332837" elapsed="0.000774"/>
</kw>
<kw name="Log" owner="BuiltIn">
<msg time="2025-06-26T14:20:40.334303" level="INFO">Response: {"page":2,"per_page":6,"total":12,"total_pages":2,"data":[{"id":7,"email":"michael.lawson@reqres.in","first_name":"Michael","last_name":"Lawson","avatar":"https://reqres.in/img/faces/7-image.jpg"},{"id":8,"email":"lindsay.ferguson@reqres.in","first_name":"Lindsay","last_name":"Ferguson","avatar":"https://reqres.in/img/faces/8-image.jpg"},{"id":9,"email":"tobias.funke@reqres.in","first_name":"Tobias","last_name":"Funke","avatar":"https://reqres.in/img/faces/9-image.jpg"},{"id":10,"email":"byron.fields@reqres.in","first_name":"Byron","last_name":"Fields","avatar":"https://reqres.in/img/faces/10-image.jpg"},{"id":11,"email":"george.edwards@reqres.in","first_name":"George","last_name":"Edwards","avatar":"https://reqres.in/img/faces/11-image.jpg"},{"id":12,"email":"rachel.howell@reqres.in","first_name":"Rachel","last_name":"Howell","avatar":"https://reqres.in/img/faces/12-image.jpg"}],"support":{"url":"https://contentcaddy.io?utm_source=reqres&amp;utm_medium=json&amp;utm_campaign=referral","text":"Tired of writing endless social media content? Let Content Caddy generate it for you."}}</msg>
<arg>Response: ${response.text}</arg>
<doc>Logs the given message with the given level.</doc>
<status status="PASS" start="2025-06-26T14:20:40.333777" elapsed="0.000644"/>
</kw>
<kw name="Convert To Json">
<kw name="Evaluate" owner="BuiltIn">
<msg time="2025-06-26T14:20:40.336210" level="FAIL">Evaluating expression 'json.loads({"page":2,"per_page":6,"total":12,"total_pages":2,"data":[{"id":7,"email":"michael.lawson@reqres.in","first_name":"Michael","last_name":"Lawson","avatar":"https://reqres.in/img/faces/7-image.jpg"},{"id":8,"email":"lindsay.ferguson@reqres.in","first_name":"Lindsay","last_name":"Ferguson","avatar":"https://reqres.in/img/faces/8-image.jpg"},{"id":9,"email":"tobias.funke@reqres.in","first_name":"Tobias","last_name":"Funke","avatar":"https://reqres.in/img/faces/9-image.jpg"},{"id":10,"email":"byron.fields@reqres.in","first_name":"Byron","last_name":"Fields","avatar":"https://reqres.in/img/faces/10-image.jpg"},{"id":11,"email":"george.edwards@reqres.in","first_name":"George","last_name":"Edwards","avatar":"https://reqres.in/img/faces/11-image.jpg"},{"id":12,"email":"rachel.howell@reqres.in","first_name":"Rachel","last_name":"Howell","avatar":"https://reqres.in/img/faces/12-image.jpg"}],"support":{"url":"https://contentcaddy.io?utm_source=reqres&amp;utm_medium=json&amp;utm_campaign=referral","text":"Tired of writing endless social media content? Let Content Caddy generate it for you."}})' failed: TypeError: the JSON object must be str, bytes or bytearray, not dict</msg>
<var>${json}</var>
<arg>json.loads(${text})</arg>
<arg>modules=json</arg>
<doc>Evaluates the given expression in Python and returns the result.</doc>
<status status="FAIL" start="2025-06-26T14:20:40.335422" elapsed="0.001031">Evaluating expression 'json.loads({"page":2,"per_page":6,"total":12,"total_pages":2,"data":[{"id":7,"email":"michael.lawson@reqres.in","first_name":"Michael","last_name":"Lawson","avatar":"https://reqres.in/img/faces/7-image.jpg"},{"id":8,"email":"lindsay.ferguson@reqres.in","first_name":"Lindsay","last_name":"Ferguson","avatar":"https://reqres.in/img/faces/8-image.jpg"},{"id":9,"email":"tobias.funke@reqres.in","first_name":"Tobias","last_name":"Funke","avatar":"https://reqres.in/img/faces/9-image.jpg"},{"id":10,"email":"byron.fields@reqres.in","first_name":"Byron","last_name":"Fields","avatar":"https://reqres.in/img/faces/10-image.jpg"},{"id":11,"email":"george.edwards@reqres.in","first_name":"George","last_name":"Edwards","avatar":"https://reqres.in/img/faces/11-image.jpg"},{"id":12,"email":"rachel.howell@reqres.in","first_name":"Rachel","last_name":"Howell","avatar":"https://reqres.in/img/faces/12-image.jpg"}],"support":{"url":"https://contentcaddy.io?utm_source=reqres&amp;utm_medium=json&amp;utm_campaign=referral","text":"Tired of writing endless social media content? Let Content Caddy generate it for you."}})' failed: TypeError: the JSON object must be str, bytes or bytearray, not dict</status>
</kw>
<return>
<value>${json}</value>
<status status="NOT RUN" start="2025-06-26T14:20:40.336589" elapsed="0.000115"/>
</return>
<var>${response_json}</var>
<arg>${response.text}</arg>
<status status="FAIL" start="2025-06-26T14:20:40.334648" elapsed="0.002225">Evaluating expression 'json.loads({"page":2,"per_page":6,"total":12,"total_pages":2,"data":[{"id":7,"email":"michael.lawson@reqres.in","first_name":"Michael","last_name":"Lawson","avatar":"https://reqres.in/img/faces/7-image.jpg"},{"id":8,"email":"lindsay.ferguson@reqres.in","first_name":"Lindsay","last_name":"Ferguson","avatar":"https://reqres.in/img/faces/8-image.jpg"},{"id":9,"email":"tobias.funke@reqres.in","first_name":"Tobias","last_name":"Funke","avatar":"https://reqres.in/img/faces/9-image.jpg"},{"id":10,"email":"byron.fields@reqres.in","first_name":"Byron","last_name":"Fields","avatar":"https://reqres.in/img/faces/10-image.jpg"},{"id":11,"email":"george.edwards@reqres.in","first_name":"George","last_name":"Edwards","avatar":"https://reqres.in/img/faces/11-image.jpg"},{"id":12,"email":"rachel.howell@reqres.in","first_name":"Rachel","last_name":"Howell","avatar":"https://reqres.in/img/faces/12-image.jpg"}],"support":{"url":"https://contentcaddy.io?utm_source=reqres&amp;utm_medium=json&amp;utm_campaign=referral","text":"Tired of writing endless social media content? Let Content Caddy generate it for you."}})' failed: TypeError: the JSON object must be str, bytes or bytearray, not dict</status>
</kw>
<kw name="Get From Dictionary" owner="Collections">
<var>${total}</var>
<arg>${response_json}</arg>
<arg>total</arg>
<doc>Returns a value from the given ``dictionary`` based on the given ``key``.</doc>
<status status="NOT RUN" start="2025-06-26T14:20:40.337038" elapsed="0.000098"/>
</kw>
<kw name="Should Be True" owner="BuiltIn">
<arg>${total} &gt; 0</arg>
<doc>Fails if the given condition is not true.</doc>
<status status="NOT RUN" start="2025-06-26T14:20:40.337255" elapsed="0.000075"/>
</kw>
<doc>Test GET request to retrieve a list of users (page 2).</doc>
<tag>GET, API</tag>
<status status="FAIL" start="2025-06-26T14:20:40.265861" elapsed="0.071627">Evaluating expression 'json.loads({"page":2,"per_page":6,"total":12,"total_pages":2,"data":[{"id":7,"email":"michael.lawson@reqres.in","first_name":"Michael","last_name":"Lawson","avatar":"https://reqres.in/img/faces/7-image.jpg"},{"id":8,"email":"lindsay.ferguson@reqres.in","first_name":"Lindsay","last_name":"Ferguson","avatar":"https://reqres.in/img/faces/8-image.jpg"},{"id":9,"email":"tobias.funke@reqres.in","first_name":"Tobias","last_name":"Funke","avatar":"https://reqres.in/img/faces/9-image.jpg"},{"id":10,"email":"byron.fields@reqres.in","first_name":"Byron","last_name":"Fields","avatar":"https://reqres.in/img/faces/10-image.jpg"},{"id":11,"email":"george.edwards@reqres.in","first_name":"George","last_name":"Edwards","avatar":"https://reqres.in/img/faces/11-image.jpg"},{"id":12,"email":"rachel.howell@reqres.in","first_name":"Rachel","last_name":"Howell","avatar":"https://reqres.in/img/faces/12-image.jpg"}],"support":{"url":"https://contentcaddy.io?utm_source=reqres&amp;utm_medium=json&amp;utm_campaign=referral","text":"Tired of writing endless social media content? Let Content Caddy generate it for you."}})' failed: TypeError: the JSON object must be str, bytes or bytearray, not dict</status>
</test>
<status status="FAIL" start="2025-06-26T14:20:39.091223" elapsed="1.247107"/>
</suite>
<statistics>
<total>
<stat pass="0" fail="3" skip="0">All Tests</stat>
</total>
<tag>
<stat pass="0" fail="1" skip="0">GET, API</stat>
<stat pass="0" fail="1" skip="0">POST, API</stat>
<stat pass="0" fail="1" skip="0">PUT, API</stat>
</tag>
<suite>
<stat name="GrokTest" id="s1" pass="0" fail="3" skip="0">GrokTest</stat>
</suite>
</statistics>
<errors>
<msg time="2025-06-26T14:20:39.076141" level="WARN">Error in file 'C:\Users\Lenovo\IdeaProjects\GrokAPI\src\test\resources\TestCases\GrokTest.robot' on line 53: The '[Return]' setting is deprecated. Use the 'RETURN' statement instead.</msg>
<msg time="2025-06-26T14:20:39.405237" level="WARN">Keyword 'RequestsLibrary.Post Request' is deprecated. Please use `POST On Session` instead.</msg>
<msg time="2025-06-26T14:20:39.949928" level="WARN">Keyword 'RequestsLibrary.Put Request' is deprecated. Please use `PUT On Session` instead.</msg>
<msg time="2025-06-26T14:20:40.266616" level="WARN">Keyword 'RequestsLibrary.Get Request' is deprecated. Please use `GET On Session` instead.</msg>
</errors>
</robot>
robot>
